\relax 
\providecommand\hyper@newdestlabel[2]{}
\catcode `"\active 
\providecommand\HyperFirstAtBeginDocument{\AtBeginDocument}
\HyperFirstAtBeginDocument{\ifx\hyper@anchor\@undefined
\global\let\oldcontentsline\contentsline
\gdef\contentsline#1#2#3#4{\oldcontentsline{#1}{#2}{#3}}
\global\let\oldnewlabel\newlabel
\gdef\newlabel#1#2{\newlabelxx{#1}#2}
\gdef\newlabelxx#1#2#3#4#5#6{\oldnewlabel{#1}{{#2}{#3}}}
\AtEndDocument{\ifx\hyper@anchor\@undefined
\let\contentsline\oldcontentsline
\let\newlabel\oldnewlabel
\fi}
\fi}
\global\let\hyper@last\relax 
\gdef\HyperFirstAtBeginDocument#1{#1}
\providecommand\HyField@AuxAddToFields[1]{}
\providecommand\HyField@AuxAddToCoFields[2]{}
\citation{abnt-url-package=url}
\citation{abnt-emphasize=bf}
\select@language{brazilian}
\@writefile{toc}{\select@language{brazilian}}
\@writefile{lof}{\select@language{brazilian}}
\@writefile{lot}{\select@language{brazilian}}
\@writefile{lof}{\addvspace {10\p@ }}
\@writefile{lot}{\addvspace {10\p@ }}
\@writefile{lof}{\addvspace {10\p@ }}
\@writefile{lot}{\addvspace {10\p@ }}
\select@language{english}
\@writefile{toc}{\select@language{english}}
\@writefile{lof}{\select@language{english}}
\@writefile{lot}{\select@language{english}}
\@writefile{lof}{\addvspace {10\p@ }}
\@writefile{lot}{\addvspace {10\p@ }}
\select@language{brazilian}
\@writefile{toc}{\select@language{brazilian}}
\@writefile{lof}{\select@language{brazilian}}
\@writefile{lot}{\select@language{brazilian}}
\@writefile{lof}{\addvspace {10\p@ }}
\@writefile{lot}{\addvspace {10\p@ }}
\@writefile{lof}{\addvspace {10\p@ }}
\@writefile{lot}{\addvspace {10\p@ }}
\tocstyle@set@width {unum}{lof}{}{21.0pt}
\tocstyle@set@width {num}{lof}{1}{21.0pt}
\tocstyle@set@width {skip}{lof}{1}{18.0pt}
\@writefile{lof}{\addvspace {10\p@ }}
\@writefile{lot}{\addvspace {10\p@ }}
\tocstyle@set@width {unum}{lot}{}{21.0pt}
\tocstyle@set@width {num}{lot}{1}{21.0pt}
\tocstyle@set@width {skip}{lot}{1}{18.0pt}
\@writefile{lof}{\addvspace {10\p@ }}
\@writefile{lot}{\addvspace {10\p@ }}
\tocstyle@set@width {unum}{toc}{}{30.0pt}
\tocstyle@set@width {skip}{toc}{0}{0.0pt}
\tocstyle@set@width {num}{toc}{1}{21.0pt}
\tocstyle@set@width {skip}{toc}{1}{18.0pt}
\tocstyle@set@width {num}{toc}{2}{30.0pt}
\tocstyle@set@width {skip}{toc}{2}{39.0pt}
\citation{eficientMechanism}
\citation{wang2015open}
\citation{wang2015open}
\@writefile{toc}{\contentsline {chapter}{1~Introdu\IeC {\c c}\IeC {\~a}o}{11}{CHAPTER.1}}
\citation{wang2015open}
\citation{anvak4:online}
\citation{Twelv6:online}
\citation{Home_0:online}
\citation{wang2015open}
\citation{bostock2009protovis}
\citation{wang2015open}
\citation{D3.js3:online}
\citation{bostock2011d3}
\@writefile{toc}{\contentsline {chapter}{2~Estado da Arte}{12}{CHAPTER.2}}
\@writefile{toc}{\contentsline {section}{\numberline {2.1}Grafos}{12}{section.2.1}}
\@writefile{toc}{\contentsline {section}{\numberline {2.2}APIs}{12}{section.2.2}}
\@writefile{toc}{\contentsline {subsection}{\numberline {2.2.1}D3.js}{12}{subsection.2.2.1}}
\citation{Direc1:online}
\citation{Direc1:online}
\citation{wang2015open}
\citation{Sigma7:online}
\@writefile{lol}{\contentsline {lstlisting}{\numberline {2.1}Atualiza\IeC {\c c}\IeC {\~a}o}{13}{lstlisting.2.1}}
\@writefile{lol}{\contentsline {lstlisting}{\numberline {2.2}Adi\IeC {\c c}\IeC {\~a}o}{13}{lstlisting.2.2}}
\@writefile{lol}{\contentsline {lstlisting}{\numberline {2.3}Remo\IeC {\c c}\IeC {\~a}o}{13}{lstlisting.2.3}}
\@writefile{lof}{\contentsline {figure}{\numberline {2.1}{\ignorespaces D3 - Directed Graph Editor}}{14}{figure.2.1}}
\newlabel{fig:estrutura_d3}{{2.1}{14}{D3 - Directed Graph Editor}{figure.2.1}{}}
\@writefile{toc}{\contentsline {subsection}{\numberline {2.2.2}Sigma.js}{14}{subsection.2.2.2}}
\citation{wang2015open}
\citation{royeffectiveness}
\citation{Sigma_exemplo}
\citation{Sigma_exemplo}
\citation{lopes2010cytoscape}
\citation{ono2014cytoscape}
\@writefile{lof}{\contentsline {figure}{\numberline {2.2}{\ignorespaces Sigma.js - Add node on click}}{15}{figure.2.2}}
\newlabel{fig:estrutura_sigma}{{2.2}{15}{Sigma.js - Add node on click}{figure.2.2}{}}
\@writefile{toc}{\contentsline {subsection}{\numberline {2.2.3}Cytoscape.js}{15}{subsection.2.2.3}}
\citation{smoot2011cytoscape}
\citation{Cytos6:online}
\citation{Anima4:online}
\citation{Anima4:online}
\@writefile{lof}{\contentsline {figure}{\numberline {2.3}{\ignorespaces Cytoscape - Anima\IeC {\c c}\IeC {\~a}o BFS}}{16}{figure.2.3}}
\newlabel{fig:estrutura_cytoscape}{{2.3}{16}{Cytoscape - Animação BFS}{figure.2.3}{}}
\citation{vis.j1:online}
\citation{royeffectiveness}
\citation{anvak1:online}
\citation{Graph8:online}
\citation{Graph4:online}
\citation{Graph4:online}
\citation{JSNet7:online}
\citation{D3.js3:online}
\@writefile{toc}{\contentsline {subsection}{\numberline {2.2.4}Vis.js}{17}{subsection.2.2.4}}
\@writefile{toc}{\contentsline {subsection}{\numberline {2.2.5}VivaGraph.js}{17}{subsection.2.2.5}}
\citation{samiz6:online}
\citation{Graph0:online}
\citation{cpett1:online}
\@writefile{lof}{\contentsline {figure}{\numberline {2.4}{\ignorespaces VivaGraph.js}}{18}{figure.2.4}}
\newlabel{fig:estrutura_vivagraph}{{2.4}{18}{VivaGraph.js}{figure.2.4}{}}
\@writefile{toc}{\contentsline {subsection}{\numberline {2.2.6}JSNetworkX}{18}{subsection.2.2.6}}
\@writefile{toc}{\contentsline {subsection}{\numberline {2.2.7}APIs descontinuadas}{18}{subsection.2.2.7}}
\citation{We_Love_graphs_table:online}
\citation{We_Love_graphs_table:online}
\@writefile{toc}{\contentsline {chapter}{3~Avalia\IeC {\c c}\IeC {\~a}o}{19}{CHAPTER.3}}
\@writefile{toc}{\contentsline {section}{\numberline {3.1}Crit\IeC {\'e}rios de avalia\IeC {\c c}\IeC {\~a}o}{19}{section.3.1}}
\citation{We_Love_graphs_table:online}
\citation{We_Love_graphs_table:online}
\citation{Drawi1:online}
\@writefile{toc}{\contentsline {section}{\numberline {3.2}Avalia\IeC {\c c}\IeC {\~a}o geral}{20}{section.3.2}}
\@writefile{toc}{\contentsline {section}{\numberline {3.3}Resumo}{21}{section.3.3}}
\@writefile{lot}{\contentsline {table}{\numberline {3.1}{\ignorespaces Grafo}}{22}{table.3.1}}
\newlabel{tbl:1}{{3.1}{22}{Grafo}{table.3.1}{}}
\@writefile{lot}{\contentsline {table}{\numberline {3.2}{\ignorespaces Collection/Array}}{23}{table.3.2}}
\newlabel{tbl:2}{{3.2}{23}{Collection/Array}{table.3.2}{}}
\@writefile{lot}{\contentsline {table}{\numberline {3.3}{\ignorespaces Dados estat\IeC {\'\i }sticos dos projetos}}{23}{table.3.3}}
\newlabel{tbl:3}{{3.3}{23}{Dados estatísticos dos projetos}{table.3.3}{}}
\@writefile{toc}{\contentsline {chapter}{4~Estudo de caso}{24}{CHAPTER.4}}
\@writefile{toc}{\contentsline {section}{\numberline {4.1}Estudo}{24}{section.4.1}}
\@writefile{toc}{\contentsline {subsection}{\numberline {4.1.1}Cytoscape.js}{24}{subsection.4.1.1}}
\newlabel{lst:cyto_add}{{4.1}{24}{Adiciona nó}{lstlisting.4.1}{}}
\@writefile{lol}{\contentsline {lstlisting}{\numberline {4.1}Adiciona n\IeC {\'o}}{24}{lstlisting.4.1}}
\@writefile{lof}{\contentsline {figure}{\numberline {4.1}{\ignorespaces Cytoscape - Exemplo de utiliza\IeC {\c c}\IeC {\~a}o}}{25}{figure.4.1}}
\newlabel{fig:cytoscape_example}{{4.1}{25}{Cytoscape - Exemplo de utilização}{figure.4.1}{}}
\newlabel{lst:cyto_event}{{4.2}{25}{Relaciona um evento a um elemento}{lstlisting.4.2}{}}
\@writefile{lol}{\contentsline {lstlisting}{\numberline {4.2}Relaciona um evento a um elemento}{25}{lstlisting.4.2}}
\@writefile{toc}{\contentsline {subsection}{\numberline {4.1.2}D3.js}{26}{subsection.4.1.2}}
\newlabel{lst:d3_json}{{4.3}{26}{Importação de dados a partir de arquivo externo}{lstlisting.4.3}{}}
\@writefile{lol}{\contentsline {lstlisting}{\numberline {4.3}Importa\IeC {\c c}\IeC {\~a}o de dados a partir de arquivo externo}{26}{lstlisting.4.3}}
\@writefile{lof}{\contentsline {figure}{\numberline {4.2}{\ignorespaces D3 - Exemplo de utiliza\IeC {\c c}\IeC {\~a}o}}{27}{figure.4.2}}
\newlabel{fig:d3_example}{{4.2}{27}{D3 - Exemplo de utilização}{figure.4.2}{}}
\newlabel{lst:d3_event}{{4.4}{27}{Ligando uma função a nós}{lstlisting.4.4}{}}
\@writefile{lol}{\contentsline {lstlisting}{\numberline {4.4}Ligando uma fun\IeC {\c c}\IeC {\~a}o a n\IeC {\'o}s}{27}{lstlisting.4.4}}
\bibstyle{abntex2-alf}
\bibdata{abntex2-options,biblio}
\@writefile{toc}{\contentsline {chapter}{5~Conclus\IeC {\~a}o}{28}{CHAPTER.5}}
\bibcite{vis.j1:online}{Almende 2013}
\bibciteEXPL{vis.j1:online}{Almende}
\bibciteIMPL{vis.j1:online}{ALMENDE}
\bibciteYEAR{vis.j1:online}{2013}
\bibcite{Home_0:online}{Bostock 2015}
\bibciteEXPL{Home_0:online}{Bostock}
\bibciteIMPL{Home_0:online}{BOSTOCK}
\bibciteYEAR{Home_0:online}{2015a}
\bibcite{D3.js3:online}{Bostock 2015}
\bibciteEXPL{D3.js3:online}{Bostock}
\bibciteIMPL{D3.js3:online}{BOSTOCK}
\bibciteYEAR{D3.js3:online}{2015b}
\bibcite{bostock2009protovis}{Bostock and Heer 2009}
\bibciteEXPL{bostock2009protovis}{Bostock and Heer}
\bibciteIMPL{bostock2009protovis}{BOSTOCK; HEER}
\bibciteYEAR{bostock2009protovis}{2009}
\bibcite{bostock2011d3}{Bostock, Ogievetsky and Heer 2011}
\bibciteEXPL{bostock2011d3}{Bostock, Ogievetsky and Heer}
\bibciteIMPL{bostock2011d3}{BOSTOCK; OGIEVETSKY; HEER}
\bibciteYEAR{bostock2011d3}{2011}
\bibcite{Cytos6:online}{Consoritum}
\bibciteEXPL{Cytos6:online}{Consoritum}
\bibciteIMPL{Cytos6:online}{CONSORITUM}
\bibciteYEAR{Cytos6:online}{}
\bibcite{Anima4:online}{Franz 2014}
\bibciteEXPL{Anima4:online}{Franz}
\bibciteIMPL{Anima4:online}{FRANZ}
\bibciteYEAR{Anima4:online}{2014}
\bibcite{Twelv6:online}{Greco 2014}
\bibciteEXPL{Twelv6:online}{Greco}
\bibciteIMPL{Twelv6:online}{GRECO}
\bibciteYEAR{Twelv6:online}{2014}
\bibcite{Graph0:online}{Hedinger 2013}
\bibciteEXPL{Graph0:online}{Hedinger}
\bibciteIMPL{Graph0:online}{HEDINGER}
\bibciteYEAR{Graph0:online}{2013}
\bibcite{Sigma_exemplo}{Jacomy}
\bibciteEXPL{Sigma_exemplo}{Jacomy}
\bibciteIMPL{Sigma_exemplo}{JACOMY}
\bibciteYEAR{Sigma_exemplo}{a}
\bibcite{Sigma7:online}{Jacomy}
\bibciteEXPL{Sigma7:online}{Jacomy}
\bibciteIMPL{Sigma7:online}{JACOMY}
\bibciteYEAR{Sigma7:online}{b}
\bibcite{anvak4:online}{Kashcha 2014}
\bibciteEXPL{anvak4:online}{Kashcha}
\bibciteIMPL{anvak4:online}{KASHCHA}
\bibciteYEAR{anvak4:online}{2014}
\bibcite{Graph8:online}{Kashcha 2015}
\bibciteEXPL{Graph8:online}{Kashcha}
\bibciteIMPL{Graph8:online}{KASHCHA}
\bibciteYEAR{Graph8:online}{2015a}
\bibcite{Graph4:online}{Kashcha 2015}
\bibciteEXPL{Graph4:online}{Kashcha}
\bibciteIMPL{Graph4:online}{KASHCHA}
\bibciteYEAR{Graph4:online}{2015b}
\bibcite{anvak1:online}{Kashcha 2015}
\bibciteEXPL{anvak1:online}{Kashcha}
\bibciteIMPL{anvak1:online}{KASHCHA}
\bibciteYEAR{anvak1:online}{2015c}
\bibcite{We_Love_graphs_table:online}{Kashcha 2015}
\bibciteEXPL{We_Love_graphs_table:online}{Kashcha}
\bibciteIMPL{We_Love_graphs_table:online}{KASHCHA}
\bibciteYEAR{We_Love_graphs_table:online}{2015d}
\bibcite{Direc1:online}{Kirsling 2013}
\bibciteEXPL{Direc1:online}{Kirsling}
\bibciteIMPL{Direc1:online}{KIRSLING}
\bibciteYEAR{Direc1:online}{2013}
\bibcite{JSNet7:online}{Kling 2012}
\bibciteEXPL{JSNet7:online}{Kling}
\bibciteIMPL{JSNet7:online}{KLING}
\bibciteYEAR{JSNet7:online}{2012}
\bibcite{Drawi1:online}{Kling 2013}
\bibciteEXPL{Drawi1:online}{Kling}
\bibciteIMPL{Drawi1:online}{KLING}
\bibciteYEAR{Drawi1:online}{2013}
\bibcite{lopes2010cytoscape}{Lopes et al. 2010}
\bibciteEXPL{lopes2010cytoscape}{Lopes et al.}
\bibciteIMPL{lopes2010cytoscape}{LOPES et al.}
\bibciteYEAR{lopes2010cytoscape}{2010}
\@writefile{toc}{\contentsline {chapter}{\xspace  {}Refer{\^e}ncias}{29}{schapter.8}}
\@writefile{lof}{\addvspace {10\p@ }}
\@writefile{lot}{\addvspace {10\p@ }}
\bibcite{ono2014cytoscape}{Ono, Demchak and Ideker 2014}
\bibciteEXPL{ono2014cytoscape}{Ono, Demchak and Ideker}
\bibciteIMPL{ono2014cytoscape}{ONO; DEMCHAK; IDEKER}
\bibciteYEAR{ono2014cytoscape}{2014}
\bibcite{cpett1:online}{Pettitt 2012}
\bibciteEXPL{cpett1:online}{Pettitt}
\bibciteIMPL{cpett1:online}{PETTITT}
\bibciteYEAR{cpett1:online}{2012}
\bibcite{royeffectiveness}{Roy 2015}
\bibciteEXPL{royeffectiveness}{Roy}
\bibciteIMPL{royeffectiveness}{ROY}
\bibciteYEAR{royeffectiveness}{2015}
\bibcite{smoot2011cytoscape}{Smoot et al. 2011}
\bibciteEXPL{smoot2011cytoscape}{Smoot et al.}
\bibciteIMPL{smoot2011cytoscape}{SMOOT et al.}
\bibciteYEAR{smoot2011cytoscape}{2011}
\bibcite{samiz6:online}{Swinehart 2012}
\bibciteEXPL{samiz6:online}{Swinehart}
\bibciteIMPL{samiz6:online}{SWINEHART}
\bibciteYEAR{samiz6:online}{2012}
\bibcite{eficientMechanism}{Toma 2014}
\bibciteEXPL{eficientMechanism}{Toma}
\bibciteIMPL{eficientMechanism}{TOMA}
\bibciteYEAR{eficientMechanism}{2014}
\bibcite{wang2015open}{Wang et al. 2015}
\bibciteEXPL{wang2015open}{Wang et al.}
\bibciteIMPL{wang2015open}{WANG et al.}
\bibciteYEAR{wang2015open}{2015}
\@writefile{toc}{\contentsline {chapter}{\MakeUppercase  {Ap{\^e}ndice} A~--- Exemplo de implementa\IeC {\c c}\IeC {\~a}o usando Cytoscape}{31}{CHAPTER.A}}
\newlabel{apendix:cyto_example}{{A}{31}{Exemplo de implementação usando Cytoscape}{CHAPTER.A}{}}
\@writefile{lol}{\contentsline {lstlisting}{\numberline {A.1}index.html}{31}{lstlisting.A.1}}
\@writefile{lol}{\contentsline {lstlisting}{\numberline {A.2}style.css}{31}{lstlisting.A.2}}
\@writefile{lol}{\contentsline {lstlisting}{\numberline {A.3}code.js}{31}{lstlisting.A.3}}
\newlabel{line:cy_node_start}{{6}{31}{Exemplo de implementação usando Cytoscape}{lstnumber.A.3.6}{}}
\newlabel{line:cy_node_end}{{11}{32}{Exemplo de implementação usando Cytoscape}{lstnumber.A.3.11}{}}
\newlabel{line:cy_edge_start}{{12}{32}{Exemplo de implementação usando Cytoscape}{lstnumber.A.3.12}{}}
\newlabel{line:cy_edge_end}{{19}{32}{Exemplo de implementação usando Cytoscape}{lstnumber.A.3.19}{}}
\newlabel{line:cy_node_ref_start}{{21}{32}{Exemplo de implementação usando Cytoscape}{lstnumber.A.3.21}{}}
\newlabel{line:cy_edge_ref_start}{{32}{32}{Exemplo de implementação usando Cytoscape}{lstnumber.A.3.32}{}}
\newlabel{line:cy_layout}{{51}{33}{Exemplo de implementação usando Cytoscape}{lstnumber.A.3.51}{}}
\@writefile{toc}{\contentsline {chapter}{\MakeUppercase  {Ap{\^e}ndice} B~--- Exemplo de implementa\IeC {\c c}\IeC {\~a}o usando D3}{34}{CHAPTER.B}}
\newlabel{apendix:d3_example}{{B}{34}{Exemplo de implementação usando D3}{CHAPTER.B}{}}
\@writefile{lol}{\contentsline {lstlisting}{\numberline {B.1}index.html}{34}{lstlisting.B.1}}
\@writefile{lol}{\contentsline {lstlisting}{\numberline {B.2}data.json}{34}{lstlisting.B.2}}
\@writefile{lol}{\contentsline {lstlisting}{\numberline {B.3}code.js}{35}{lstlisting.B.3}}
\newlabel{line:d3_type}{{4}{35}{Exemplo de implementação usando D3}{lstnumber.B.3.4}{}}
\newlabel{line:d3_load_json}{{17}{36}{Exemplo de implementação usando D3}{lstnumber.B.3.17}{}}
\newlabel{line:d3_load_in}{{21}{36}{Exemplo de implementação usando D3}{lstnumber.B.3.21}{}}
\newlabel{line:d3_links}{{25}{36}{Exemplo de implementação usando D3}{lstnumber.B.3.25}{}}
\newlabel{line:d3_nodes}{{31}{36}{Exemplo de implementação usando D3}{lstnumber.B.3.31}{}}
\newlabel{line:d3_event}{{34}{36}{Exemplo de implementação usando D3}{lstnumber.B.3.34}{}}
\newlabel{line:d3_pos}{{42}{36}{Exemplo de implementação usando D3}{lstnumber.B.3.42}{}}
\newlabel{LastPage}{{}{37}{}{page.37}{}}
\xdef\lastpage@lastpage{37}
\xdef\lastpage@lastpageHy{37}
